//		아이템 정보		//


*이름		"Defender of Royal"
*Name		"Defender of Royal"
*코드		"DS109"
*유니크
//*유니크색상	B	G	R   	투명도	점멸시간(반비례)
*유니크색상	0	180	255	0	9


///////////////	공통사항		 ////////////

*내구력		105 105
*무게		31
*가격		35000

///////////////	원소		/////////////

*생체		4 4
*불		4 4
*냉기		4 4
*번개		4 4
*독		4 4

///////////////	공격성능		/////////////
// 추가요인	최소	최대	

*공격력		
*사정거리		
*공격속도		
*명중력		
*크리티컬		

//////////////	방어성능		/////////////
// 추가요인

*흡수력		2.0 2.0
*방어력		90 90
*블럭율		17 17

//////////////	신발성능		/////////////
// 추가요인

*이동속도		

//////////////	저장공간		/////////////
// 소켓공간할당

*보유공간		

//////////////	특수능력		/////////////
// 추가요인

*생명력재생	
*기력재생
*근력재생
*생명력추가
*기력추가		
*근력추가
*마법기술숙련도

//////////////	요구특성		/////////////
// 사용제한 요구치

*레벨		44
*힘		88
*정신력		
*재능		60
*민첩성		
*건강		

/////////////	회복약		 ////////////
// 추가요인	최소	최대

*생명력상승
*기력상승		
*근력상승	

//////////////	캐릭터특성	/////////////
// 캐릭터별 특화성능

**특화랜덤 Mechanician Fighter Pikeman Archer
// Atalanta //

**흡수력	0.4 0.6
**블럭율	4
**방어력	18 26

*연결파일        "name\_Uo_Defender of Royal.zhoon"